\relax 
\providecommand \babel@aux [2]{\global \let \babel@toc \@gobbletwo }
\@nameuse{bbl@beforestart}
\catcode `:\active 
\catcode `;\active 
\catcode `!\active 
\catcode `?\active 
\babel@aux{french}{}
\newlabel{LastPage}{{}{1}{}{}{}}
\gdef\lastpage@lastpage{1}
\gdef\lastpage@lastpageHy{}
\gdef \@abspage@last{1}
