A,A,A,A,A,A,D,D,D,D,D,A,A,A,A,A,A,A
A,A,A,A,D,D,F,F,E,F,F,D,D,A,A,A,A,A
A,A,A,D,F,F,F,F,E,F,F,F,F,D,A,A,A,A
A,A,D,F,F,F,F,F,E,F,F,F,F,F,D,A,A,A
A,A,D,F,E,F,F,F,E,F,F,F,E,F,D,A,A,A
A,D,F,F,E,E,E,F,E,F,E,E,E,F,F,D,A,A
A,D,F,F,F,E,E,E,E,E,E,E,F,F,F,D,A,A
A,D,F,F,E,E,E,E,E,E,E,E,E,F,F,D,A,A
A,D,F,E,B,B,B,B,B,B,B,B,B,E,F,D,A,A
A,D,F,E,B,D,C,B,B,B,D,C,B,E,F,D,A,A
A,A,D,E,B,D,D,B,B,B,D,D,B,E,D,A,A,A
A,A,D,E,B,B,B,B,B,B,B,B,B,E,D,A,A,A
A,D,E,D,E,B,B,B,B,B,B,B,B,D,E,D,A,A
D,E,E,E,D,B,B,B,B,B,B,B,D,E,E,E,D,A
D,D,E,E,E,D,D,D,D,D,D,D,E,E,E,D,D,A
A,A,D,F,F,E,E,E,E,E,E,E,F,F,D,A,A,A
A,D,F,F,D,F,F,E,E,E,E,F,D,F,F,D,D,A
D,E,E,E,D,F,F,F,E,F,F,F,D,E,E,E,E,D
D,E,E,D,D,E,E,E,E,E,E,E,D,D,H,G,J,D
A,D,D,A,D,E,E,F,E,F,E,E,D,A,D,E,I,D
A,A,A,D,D,F,F,F,E,F,F,F,D,D,A,D,D,A
A,A,A,D,F,F,F,D,D,D,F,F,F,D,A,A,A,A
A,A,A,D,E,E,D,A,A,A,D,E,E,D,A,A,A,A
A,A,D,E,E,E,D,A,A,A,D,E,E,E,D,A,A,A
A,A,D,D,D,D,D,A,A,A,D,D,D,D,D,A,A,A
